Library\Bee\artifacts\mvdfrm\Unity.EditorCoroutines.Editor.ref.dll_1315E0A407C70415.mvfrm
Library\Bee\artifacts\mvdfrm\Unity.InputSystem.ref.dll_7B1D397D2193763B.mvfrm
Library\Bee\artifacts\mvdfrm\Unity.Performance.Profile-Analyzer.Editor.ref.dll_8B44F821019897E5.mvfrm
Library\Bee\artifacts\mvdfrm\Unity.PlasticSCM.Editor.ref.dll_A558B9E65539D7D0.mvfrm
Library\Bee\artifacts\mvdfrm\Unity.Rider.Editor.ref.dll_DA88E6A3E9EB6155.mvfrm
Library\Bee\artifacts\mvdfrm\Unity.Services.Core.Analytics.ref.dll_CBCA382B387CF7F9.mvfrm
Library\Bee\artifacts\mvdfrm\Unity.Services.Core.Environments.ref.dll_E7BB04DD211B7353.mvfrm
Library\Bee\artifacts\mvdfrm\Unity.Services.Core.ref.dll_8B79153BEDCD5611.mvfrm
Library\Bee\artifacts\mvdfrm\Unity.Subsystem.Registration.ref.dll_1470F74CFD6DDD5C.mvfrm
Library\Bee\artifacts\mvdfrm\Unity.TestTools.CodeCoverage.Editor.OpenCover.Model.ref.dll_22F664961FC0158D.mvfrm
Library\Bee\artifacts\mvdfrm\Unity.TestTools.CodeCoverage.Editor.OpenCover.Mono.Reflection.ref.dll_39D3266F6029657A.mvfrm
Library\Bee\artifacts\mvdfrm\Unity.TestTools.CodeCoverage.Editor.ref.dll_C6D619E6129B87D3.mvfrm
Library\Bee\artifacts\mvdfrm\Unity.TextMeshPro.Editor.ref.dll_D0BA3615D322EF6C.mvfrm
Library\Bee\artifacts\mvdfrm\Unity.TextMeshPro.ref.dll_02929A3ECA791895.mvfrm
Library\Bee\artifacts\mvdfrm\Unity.Timeline.Editor.ref.dll_17F688653313AA4C.mvfrm
Library\Bee\artifacts\mvdfrm\Unity.Timeline.ref.dll_16F8EA6B67022FB5.mvfrm
Library\Bee\artifacts\mvdfrm\Unity.VSCode.Editor.ref.dll_AE868214B5ED3D13.mvfrm
Library\Bee\artifacts\mvdfrm\Unity.VisualScripting.Core.Editor.ref.dll_514B12BC0D1D8DB7.mvfrm
Library\Bee\artifacts\mvdfrm\Unity.VisualScripting.Core.ref.dll_BF8650D11F8E519A.mvfrm
Library\Bee\artifacts\mvdfrm\Unity.VisualScripting.Flow.Editor.ref.dll_CE7BFB6B1BFC18F8.mvfrm
Library\Bee\artifacts\mvdfrm\Unity.VisualScripting.Flow.ref.dll_06973127A197C649.mvfrm
Library\Bee\artifacts\mvdfrm\Unity.VisualScripting.SettingsProvider.Editor.ref.dll_EE1755C0672F8EE2.mvfrm
Library\Bee\artifacts\mvdfrm\Unity.VisualScripting.Shared.Editor.ref.dll_6CA31C4FA5286AB1.mvfrm
Library\Bee\artifacts\mvdfrm\Unity.VisualScripting.State.Editor.ref.dll_DC1879B0E64A8F15.mvfrm
Library\Bee\artifacts\mvdfrm\Unity.VisualScripting.State.ref.dll_900B338E31D9525C.mvfrm
Library\Bee\artifacts\mvdfrm\Unity.VisualStudio.Editor.ref.dll_0FE027DDD6F41767.mvfrm
Library\Bee\artifacts\mvdfrm\Unity.XR.CoreUtils.Editor.ref.dll_8144CEBFC8DD722F.mvfrm
Library\Bee\artifacts\mvdfrm\Unity.XR.CoreUtils.ref.dll_7BD60984F2BC85A2.mvfrm
Library\Bee\artifacts\mvdfrm\Unity.XR.Interaction.Toolkit.Editor.ref.dll_EA0A41A881A38C0F.mvfrm
Library\Bee\artifacts\mvdfrm\Unity.XR.Interaction.Toolkit.ref.dll_3BC3806C28E64DC2.mvfrm
Library\Bee\artifacts\mvdfrm\Unity.XR.Management.Editor.ref.dll_63D1283B59813AF8.mvfrm
Library\Bee\artifacts\mvdfrm\Unity.XR.Management.ref.dll_B8AA0C3955A88449.mvfrm
Library\Bee\artifacts\mvdfrm\Unity.XR.MockHMD.Editor.ref.dll_14786C4914AC27AC.mvfrm
Library\Bee\artifacts\mvdfrm\Unity.XR.MockHMD.ref.dll_7DACE936FDA95C55.mvfrm
Library\Bee\artifacts\mvdfrm\Unity.XR.Oculus.Editor.ref.dll_7B34F9F5328E4DD2.mvfrm
Library\Bee\artifacts\mvdfrm\Unity.XR.Oculus.ref.dll_F7E0CC0D68418BCF.mvfrm
Library\Bee\artifacts\mvdfrm\UnityEditor.SpatialTracking.ref.dll_4005BB3EAE0C01EA.mvfrm
Library\Bee\artifacts\mvdfrm\UnityEditor.UI.ref.dll_0174E068A5FA251B.mvfrm
Library\Bee\artifacts\mvdfrm\UnityEditor.XR.LegacyInputHelpers.ref.dll_A2957EFDA2C64C37.mvfrm
Library\Bee\artifacts\mvdfrm\UnityEngine.SpatialTracking.ref.dll_CC46AD662704850F.mvfrm
Library\Bee\artifacts\mvdfrm\UnityEngine.UI.ref.dll_BDDAB6C3AC1C4D86.mvfrm
Library\Bee\artifacts\mvdfrm\UnityEngine.XR.LegacyInputHelpers.ref.dll_632513B3DE0B9F3C.mvfrm
Library\Bee\artifacts\mvdfrm\UnityEditor.CoreModule.dll_AAF1D574B4D087E3.mvfrm
Library\Bee\artifacts\mvdfrm\UnityEditor.DeviceSimulatorModule.dll_979BF8B98E7A604E.mvfrm
Library\Bee\artifacts\mvdfrm\UnityEditor.DiagnosticsModule.dll_270FE5B1D11CCF1C.mvfrm
Library\Bee\artifacts\mvdfrm\UnityEditor.dll_05C0773DF2757C42.mvfrm
Library\Bee\artifacts\mvdfrm\UnityEditor.GraphViewModule.dll_00BE9DDCBB3B2773.mvfrm
Library\Bee\artifacts\mvdfrm\UnityEditor.PackageManagerUIModule.dll_A070CF19B452677F.mvfrm
Library\Bee\artifacts\mvdfrm\UnityEditor.QuickSearchModule.dll_B21F66BF29F3CB75.mvfrm
Library\Bee\artifacts\mvdfrm\UnityEditor.SceneTemplateModule.dll_5D7F294287E13A96.mvfrm
Library\Bee\artifacts\mvdfrm\UnityEditor.TextCoreFontEngineModule.dll_151A4D16C6E67E01.mvfrm
Library\Bee\artifacts\mvdfrm\UnityEditor.TextCoreTextEngineModule.dll_5D028388566A371F.mvfrm
Library\Bee\artifacts\mvdfrm\UnityEditor.UIBuilderModule.dll_55474AF92DF3A0A7.mvfrm
Library\Bee\artifacts\mvdfrm\UnityEditor.UIElementsModule.dll_1C475030FBCDFA3F.mvfrm
Library\Bee\artifacts\mvdfrm\UnityEditor.UIElementsSamplesModule.dll_37547E5D5535B01E.mvfrm
Library\Bee\artifacts\mvdfrm\UnityEditor.UIServiceModule.dll_8E395C5C172AF0C1.mvfrm
Library\Bee\artifacts\mvdfrm\UnityEditor.UnityConnectModule.dll_DD5DE28F602E2819.mvfrm
Library\Bee\artifacts\mvdfrm\UnityEngine.AccessibilityModule.dll_902494D988576233.mvfrm
Library\Bee\artifacts\mvdfrm\UnityEngine.AIModule.dll_5FEEB283D831B7D7.mvfrm
Library\Bee\artifacts\mvdfrm\UnityEngine.AndroidJNIModule.dll_9A90390444ED6915.mvfrm
Library\Bee\artifacts\mvdfrm\UnityEngine.AnimationModule.dll_CF441A059597FC19.mvfrm
Library\Bee\artifacts\mvdfrm\UnityEngine.ARModule.dll_19617787354F16A0.mvfrm
Library\Bee\artifacts\mvdfrm\UnityEngine.AssetBundleModule.dll_F60899B08C5A8067.mvfrm
Library\Bee\artifacts\mvdfrm\UnityEngine.AudioModule.dll_AB323AC4EA732ECB.mvfrm
Library\Bee\artifacts\mvdfrm\UnityEngine.ClothModule.dll_121A97BFC4900DAF.mvfrm
Library\Bee\artifacts\mvdfrm\UnityEngine.CoreModule.dll_CE12A8C75CD5F30E.mvfrm
Library\Bee\artifacts\mvdfrm\UnityEngine.CrashReportingModule.dll_952EDCF442E3FB66.mvfrm
Library\Bee\artifacts\mvdfrm\UnityEngine.DirectorModule.dll_9BBFDFF9BA1994AB.mvfrm
Library\Bee\artifacts\mvdfrm\UnityEngine.dll_3864BE1650E90927.mvfrm
Library\Bee\artifacts\mvdfrm\UnityEngine.DSPGraphModule.dll_A11141632C7A65CC.mvfrm
Library\Bee\artifacts\mvdfrm\UnityEngine.GameCenterModule.dll_C4DD831F0B2E5A06.mvfrm
Library\Bee\artifacts\mvdfrm\UnityEngine.GIModule.dll_F82AFB9173E09FF1.mvfrm
Library\Bee\artifacts\mvdfrm\UnityEngine.GridModule.dll_AB83C4B5752A8905.mvfrm
Library\Bee\artifacts\mvdfrm\UnityEngine.HotReloadModule.dll_508CD80B70CB179B.mvfrm
Library\Bee\artifacts\mvdfrm\UnityEngine.ImageConversionModule.dll_093AB8DB805A25C6.mvfrm
Library\Bee\artifacts\mvdfrm\UnityEngine.IMGUIModule.dll_E391DA2BB0A4C2AC.mvfrm
Library\Bee\artifacts\mvdfrm\UnityEngine.InputLegacyModule.dll_874DB4CF244C3658.mvfrm
Library\Bee\artifacts\mvdfrm\UnityEngine.InputModule.dll_11A8027560AB536F.mvfrm
Library\Bee\artifacts\mvdfrm\UnityEngine.JSONSerializeModule.dll_F03C1E158792C2BD.mvfrm
Library\Bee\artifacts\mvdfrm\UnityEngine.LocalizationModule.dll_9B4721F7A931EDD8.mvfrm
Library\Bee\artifacts\mvdfrm\UnityEngine.ParticleSystemModule.dll_E8412640B0F586F4.mvfrm
Library\Bee\artifacts\mvdfrm\UnityEngine.PerformanceReportingModule.dll_D9F1AC1BAEA815CD.mvfrm
Library\Bee\artifacts\mvdfrm\UnityEngine.Physics2DModule.dll_1BEA09F63694F3AE.mvfrm
Library\Bee\artifacts\mvdfrm\UnityEngine.PhysicsModule.dll_4C7EC74DEDE070FC.mvfrm
Library\Bee\artifacts\mvdfrm\UnityEngine.ProfilerModule.dll_CE06193053731BB8.mvfrm
Library\Bee\artifacts\mvdfrm\UnityEngine.RuntimeInitializeOnLoadManagerInitializerModule.dll_E2D73EBAD05EC077.mvfrm
Library\Bee\artifacts\mvdfrm\UnityEngine.ScreenCaptureModule.dll_0A23CB9A9BFEEF1F.mvfrm
Library\Bee\artifacts\mvdfrm\UnityEngine.SharedInternalsModule.dll_8D4BF7B0F7882116.mvfrm
Library\Bee\artifacts\mvdfrm\UnityEngine.SpriteMaskModule.dll_AE09F5AF2C9DEF80.mvfrm
Library\Bee\artifacts\mvdfrm\UnityEngine.SpriteShapeModule.dll_0F69C70B41FCB871.mvfrm
Library\Bee\artifacts\mvdfrm\UnityEngine.StreamingModule.dll_83D90755E51FB357.mvfrm
Library\Bee\artifacts\mvdfrm\UnityEngine.SubstanceModule.dll_60841B9F3072B165.mvfrm
Library\Bee\artifacts\mvdfrm\UnityEngine.SubsystemsModule.dll_18B75C10FAE5D793.mvfrm
Library\Bee\artifacts\mvdfrm\UnityEngine.TerrainModule.dll_66C542BCC39EB9EA.mvfrm
Library\Bee\artifacts\mvdfrm\UnityEngine.TerrainPhysicsModule.dll_E8BBCF13CA388181.mvfrm
Library\Bee\artifacts\mvdfrm\UnityEngine.TextCoreFontEngineModule.dll_9379C869D9E43CCC.mvfrm
Library\Bee\artifacts\mvdfrm\UnityEngine.TextCoreTextEngineModule.dll_DB61FEDB6967F5EA.mvfrm
Library\Bee\artifacts\mvdfrm\UnityEngine.TextRenderingModule.dll_33633DA553366F14.mvfrm
Library\Bee\artifacts\mvdfrm\UnityEngine.TilemapModule.dll_05C1AA3DDB5B9AF3.mvfrm
Library\Bee\artifacts\mvdfrm\UnityEngine.TLSModule.dll_74709BC695CC22D0.mvfrm
Library\Bee\artifacts\mvdfrm\UnityEngine.UIElementsModule.dll_1CF5BD78FE12138A.mvfrm
Library\Bee\artifacts\mvdfrm\UnityEngine.UIElementsNativeModule.dll_EAEA83AF25CAD7A1.mvfrm
Library\Bee\artifacts\mvdfrm\UnityEngine.UIModule.dll_5B6250B13478BD83.mvfrm
Library\Bee\artifacts\mvdfrm\UnityEngine.UmbraModule.dll_2606E6DD7799DA3E.mvfrm
Library\Bee\artifacts\mvdfrm\UnityEngine.UNETModule.dll_60B8F0B0A9E4E887.mvfrm
Library\Bee\artifacts\mvdfrm\UnityEngine.UnityAnalyticsModule.dll_07E0970A5D1CD8F0.mvfrm
Library\Bee\artifacts\mvdfrm\UnityEngine.UnityConnectModule.dll_CABD669E5AB628C4.mvfrm
Library\Bee\artifacts\mvdfrm\UnityEngine.UnityCurlModule.dll_0260BB3705ABEE06.mvfrm
Library\Bee\artifacts\mvdfrm\UnityEngine.UnityTestProtocolModule.dll_F317344FAF310574.mvfrm
Library\Bee\artifacts\mvdfrm\UnityEngine.UnityWebRequestAssetBundleModule.dll_9C1FE80150782FC1.mvfrm
Library\Bee\artifacts\mvdfrm\UnityEngine.UnityWebRequestAudioModule.dll_51EDFFFA3512E065.mvfrm
Library\Bee\artifacts\mvdfrm\UnityEngine.UnityWebRequestModule.dll_1AD9C0858B4EC045.mvfrm
Library\Bee\artifacts\mvdfrm\UnityEngine.UnityWebRequestTextureModule.dll_81C3F96D2C7EA4DA.mvfrm
Library\Bee\artifacts\mvdfrm\UnityEngine.UnityWebRequestWWWModule.dll_A62444375927B256.mvfrm
Library\Bee\artifacts\mvdfrm\UnityEngine.VehiclesModule.dll_1382D97934436446.mvfrm
Library\Bee\artifacts\mvdfrm\UnityEngine.VFXModule.dll_F54F34356C398C3D.mvfrm
Library\Bee\artifacts\mvdfrm\UnityEngine.VideoModule.dll_D03BBF2FAD054A70.mvfrm
Library\Bee\artifacts\mvdfrm\UnityEngine.VRModule.dll_AE347736D63342FB.mvfrm
Library\Bee\artifacts\mvdfrm\UnityEngine.WindModule.dll_446183EFEE0C7177.mvfrm
Library\Bee\artifacts\mvdfrm\UnityEngine.XRModule.dll_E0F33A3B5F6D9059.mvfrm
Library\Bee\artifacts\mvdfrm\Unity.Android.Gradle.dll_72BB20676919C34B.mvfrm
Library\Bee\artifacts\mvdfrm\Unity.Android.Types.dll_20C3722C7C2FE421.mvfrm
Library\Bee\artifacts\mvdfrm\Unity.VisualScripting.Antlr3.Runtime.dll_D1EDD0DE2C8C2E6C.mvfrm